sluchawki:
0|ukulele|1|dziala||
1|marianki|9|nie_wiadomo||
|||
klawiatury:
0|makintosz|23|dziala||
|||
statki:
0|atlanta|1|dziala||
1|hawk|3|nie_dziala||
2|Yamato|2|NieDziala||
|||
owady:
0|komar|1|dziala||
1|komar|2|NieDziala||
|||
maslo:
0|Delma|3|dziala||
|||
ukulele:
|||
majozeny:
|||
testA:
|||
testB:
|||
koniec_pliku:

