^E:\PROJEKTY_VS\BAZADANYCHDAWIDA\BAZADANYCHDAWIDA.CPP
C:\WINDOWS\GLOBALIZATION\SORTING\SORTDEFAULT.NLS
C:\WINDOWS\SYSTEM32\RSAENH.DLL
E:\PROGRAM FILES (X86)\MICROSOFT VISUAL STUDIO\2019\COMMUNITY\VC\TOOLS\MSVC\14.27.29110\BIN\HOSTX86\X86\1045\CLUI.DLL
C:\WINDOWS\SYSTEM32\TZRES.DLL
E:\PROGRAM FILES (X86)\MICROSOFT VISUAL STUDIO\2019\COMMUNITY\VC\TOOLS\MSVC\14.27.29110\INCLUDE\IOSTREAM
E:\PROGRAM FILES (X86)\MICROSOFT VISUAL STUDIO\2019\COMMUNITY\VC\TOOLS\MSVC\14.27.29110\INCLUDE\YVALS_CORE.H
E:\PROGRAM FILES (X86)\MICROSOFT VISUAL STUDIO\2019\COMMUNITY\VC\TOOLS\MSVC\14.27.29110\INCLUDE\VCRUNTIME.H
E:\PROGRAM FILES (X86)\MICROSOFT VISUAL STUDIO\2019\COMMUNITY\VC\TOOLS\MSVC\14.27.29110\INCLUDE\SAL.H
E:\PROGRAM FILES (X86)\MICROSOFT VISUAL STUDIO\2019\COMMUNITY\VC\TOOLS\MSVC\14.27.29110\INCLUDE\CONCURRENCYSAL.H
E:\PROGRAM FILES (X86)\MICROSOFT VISUAL STUDIO\2019\COMMUNITY\VC\TOOLS\MSVC\14.27.29110\INCLUDE\VADEFS.H
E:\PROGRAM FILES (X86)\MICROSOFT VISUAL STUDIO\2019\COMMUNITY\VC\TOOLS\MSVC\14.27.29110\INCLUDE\XKEYCHECK.H
E:\PROGRAM FILES (X86)\MICROSOFT VISUAL STUDIO\2019\COMMUNITY\VC\TOOLS\MSVC\14.27.29110\INCLUDE\ISTREAM
E:\PROGRAM FILES (X86)\MICROSOFT VISUAL STUDIO\2019\COMMUNITY\VC\TOOLS\MSVC\14.27.29110\INCLUDE\OSTREAM
E:\PROGRAM FILES (X86)\MICROSOFT VISUAL STUDIO\2019\COMMUNITY\VC\TOOLS\MSVC\14.27.29110\INCLUDE\IOS
E:\PROGRAM FILES (X86)\MICROSOFT VISUAL STUDIO\2019\COMMUNITY\VC\TOOLS\MSVC\14.27.29110\INCLUDE\XLOCNUM
E:\PROGRAM FILES (X86)\MICROSOFT VISUAL STUDIO\2019\COMMUNITY\VC\TOOLS\MSVC\14.27.29110\INCLUDE\CLIMITS
E:\PROGRAM FILES (X86)\MICROSOFT VISUAL STUDIO\2019\COMMUNITY\VC\TOOLS\MSVC\14.27.29110\INCLUDE\LIMITS.H
E:\PROGRAM FILES (X86)\MICROSOFT VISUAL STUDIO\2019\COMMUNITY\VC\TOOLS\MSVC\14.27.29110\INCLUDE\CMATH
E:\PROGRAM FILES (X86)\MICROSOFT VISUAL STUDIO\2019\COMMUNITY\VC\TOOLS\MSVC\14.27.29110\INCLUDE\YVALS.H
E:\WINDOWS KITS\10\INCLUDE\10.0.18362.0\UCRT\CRTDBG.H
E:\WINDOWS KITS\10\INCLUDE\10.0.18362.0\UCRT\CORECRT.H
E:\PROGRAM FILES (X86)\MICROSOFT VISUAL STUDIO\2019\COMMUNITY\VC\TOOLS\MSVC\14.27.29110\INCLUDE\VCRUNTIME_NEW_DEBUG.H
E:\PROGRAM FILES (X86)\MICROSOFT VISUAL STUDIO\2019\COMMUNITY\VC\TOOLS\MSVC\14.27.29110\INCLUDE\VCRUNTIME_NEW.H
E:\PROGRAM FILES (X86)\MICROSOFT VISUAL STUDIO\2019\COMMUNITY\VC\TOOLS\MSVC\14.27.29110\INCLUDE\CRTDEFS.H
E:\PROGRAM FILES (X86)\MICROSOFT VISUAL STUDIO\2019\COMMUNITY\VC\TOOLS\MSVC\14.27.29110\INCLUDE\USE_ANSI.H
E:\PROGRAM FILES (X86)\MICROSOFT VISUAL STUDIO\2019\COMMUNITY\VC\TOOLS\MSVC\14.27.29110\INCLUDE\CSTDLIB
E:\WINDOWS KITS\10\INCLUDE\10.0.18362.0\UCRT\MATH.H
E:\WINDOWS KITS\10\INCLUDE\10.0.18362.0\UCRT\CORECRT_MATH.H
E:\WINDOWS KITS\10\INCLUDE\10.0.18362.0\UCRT\STDLIB.H
E:\WINDOWS KITS\10\INCLUDE\10.0.18362.0\UCRT\CORECRT_MALLOC.H
E:\WINDOWS KITS\10\INCLUDE\10.0.18362.0\UCRT\CORECRT_SEARCH.H
E:\WINDOWS KITS\10\INCLUDE\10.0.18362.0\UCRT\STDDEF.H
E:\WINDOWS KITS\10\INCLUDE\10.0.18362.0\UCRT\CORECRT_WSTDLIB.H
E:\PROGRAM FILES (X86)\MICROSOFT VISUAL STUDIO\2019\COMMUNITY\VC\TOOLS\MSVC\14.27.29110\INCLUDE\XTR1COMMON
E:\PROGRAM FILES (X86)\MICROSOFT VISUAL STUDIO\2019\COMMUNITY\VC\TOOLS\MSVC\14.27.29110\INCLUDE\CSTDIO
E:\WINDOWS KITS\10\INCLUDE\10.0.18362.0\UCRT\STDIO.H
E:\WINDOWS KITS\10\INCLUDE\10.0.18362.0\UCRT\CORECRT_WSTDIO.H
E:\WINDOWS KITS\10\INCLUDE\10.0.18362.0\UCRT\CORECRT_STDIO_CONFIG.H
E:\PROGRAM FILES (X86)\MICROSOFT VISUAL STUDIO\2019\COMMUNITY\VC\TOOLS\MSVC\14.27.29110\INCLUDE\ITERATOR
E:\PROGRAM FILES (X86)\MICROSOFT VISUAL STUDIO\2019\COMMUNITY\VC\TOOLS\MSVC\14.27.29110\INCLUDE\IOSFWD
E:\PROGRAM FILES (X86)\MICROSOFT VISUAL STUDIO\2019\COMMUNITY\VC\TOOLS\MSVC\14.27.29110\INCLUDE\CSTRING
E:\WINDOWS KITS\10\INCLUDE\10.0.18362.0\UCRT\STRING.H
E:\WINDOWS KITS\10\INCLUDE\10.0.18362.0\UCRT\CORECRT_MEMORY.H
E:\WINDOWS KITS\10\INCLUDE\10.0.18362.0\UCRT\CORECRT_MEMCPY_S.H
E:\WINDOWS KITS\10\INCLUDE\10.0.18362.0\UCRT\ERRNO.H
E:\PROGRAM FILES (X86)\MICROSOFT VISUAL STUDIO\2019\COMMUNITY\VC\TOOLS\MSVC\14.27.29110\INCLUDE\VCRUNTIME_STRING.H
E:\WINDOWS KITS\10\INCLUDE\10.0.18362.0\UCRT\CORECRT_WSTRING.H
E:\PROGRAM FILES (X86)\MICROSOFT VISUAL STUDIO\2019\COMMUNITY\VC\TOOLS\MSVC\14.27.29110\INCLUDE\CWCHAR
E:\WINDOWS KITS\10\INCLUDE\10.0.18362.0\UCRT\WCHAR.H
E:\WINDOWS KITS\10\INCLUDE\10.0.18362.0\UCRT\CORECRT_WCONIO.H
E:\WINDOWS KITS\10\INCLUDE\10.0.18362.0\UCRT\CORECRT_WCTYPE.H
E:\WINDOWS KITS\10\INCLUDE\10.0.18362.0\UCRT\CORECRT_WDIRECT.H
E:\WINDOWS KITS\10\INCLUDE\10.0.18362.0\UCRT\CORECRT_WIO.H
E:\WINDOWS KITS\10\INCLUDE\10.0.18362.0\UCRT\CORECRT_SHARE.H
E:\WINDOWS KITS\10\INCLUDE\10.0.18362.0\UCRT\CORECRT_WPROCESS.H
E:\WINDOWS KITS\10\INCLUDE\10.0.18362.0\UCRT\CORECRT_WTIME.H
E:\WINDOWS KITS\10\INCLUDE\10.0.18362.0\UCRT\SYS\STAT.H
E:\WINDOWS KITS\10\INCLUDE\10.0.18362.0\UCRT\SYS\TYPES.H
E:\PROGRAM FILES (X86)\MICROSOFT VISUAL STUDIO\2019\COMMUNITY\VC\TOOLS\MSVC\14.27.29110\INCLUDE\XSTDDEF
E:\PROGRAM FILES (X86)\MICROSOFT VISUAL STUDIO\2019\COMMUNITY\VC\TOOLS\MSVC\14.27.29110\INCLUDE\CSTDDEF
E:\PROGRAM FILES (X86)\MICROSOFT VISUAL STUDIO\2019\COMMUNITY\VC\TOOLS\MSVC\14.27.29110\INCLUDE\INITIALIZER_LIST
E:\PROGRAM FILES (X86)\MICROSOFT VISUAL STUDIO\2019\COMMUNITY\VC\TOOLS\MSVC\14.27.29110\INCLUDE\XUTILITY
E:\PROGRAM FILES (X86)\MICROSOFT VISUAL STUDIO\2019\COMMUNITY\VC\TOOLS\MSVC\14.27.29110\INCLUDE\UTILITY
E:\PROGRAM FILES (X86)\MICROSOFT VISUAL STUDIO\2019\COMMUNITY\VC\TOOLS\MSVC\14.27.29110\INCLUDE\TYPE_TRAITS
E:\PROGRAM FILES (X86)\MICROSOFT VISUAL STUDIO\2019\COMMUNITY\VC\TOOLS\MSVC\14.27.29110\INCLUDE\STREAMBUF
E:\PROGRAM FILES (X86)\MICROSOFT VISUAL STUDIO\2019\COMMUNITY\VC\TOOLS\MSVC\14.27.29110\INCLUDE\XIOSBASE
E:\WINDOWS KITS\10\INCLUDE\10.0.18362.0\UCRT\SHARE.H
E:\PROGRAM FILES (X86)\MICROSOFT VISUAL STUDIO\2019\COMMUNITY\VC\TOOLS\MSVC\14.27.29110\INCLUDE\SYSTEM_ERROR
E:\PROGRAM FILES (X86)\MICROSOFT VISUAL STUDIO\2019\COMMUNITY\VC\TOOLS\MSVC\14.27.29110\INCLUDE\__MSVC_SYSTEM_ERROR_ABI.HPP
E:\PROGRAM FILES (X86)\MICROSOFT VISUAL STUDIO\2019\COMMUNITY\VC\TOOLS\MSVC\14.27.29110\INCLUDE\CERRNO
E:\PROGRAM FILES (X86)\MICROSOFT VISUAL STUDIO\2019\COMMUNITY\VC\TOOLS\MSVC\14.27.29110\INCLUDE\STDEXCEPT
E:\PROGRAM FILES (X86)\MICROSOFT VISUAL STUDIO\2019\COMMUNITY\VC\TOOLS\MSVC\14.27.29110\INCLUDE\EXCEPTION
E:\WINDOWS KITS\10\INCLUDE\10.0.18362.0\UCRT\MALLOC.H
E:\PROGRAM FILES (X86)\MICROSOFT VISUAL STUDIO\2019\COMMUNITY\VC\TOOLS\MSVC\14.27.29110\INCLUDE\VCRUNTIME_EXCEPTION.H
E:\PROGRAM FILES (X86)\MICROSOFT VISUAL STUDIO\2019\COMMUNITY\VC\TOOLS\MSVC\14.27.29110\INCLUDE\EH.H
E:\WINDOWS KITS\10\INCLUDE\10.0.18362.0\UCRT\CORECRT_TERMINATE.H
E:\PROGRAM FILES (X86)\MICROSOFT VISUAL STUDIO\2019\COMMUNITY\VC\TOOLS\MSVC\14.27.29110\INCLUDE\XSTRING
E:\PROGRAM FILES (X86)\MICROSOFT VISUAL STUDIO\2019\COMMUNITY\VC\TOOLS\MSVC\14.27.29110\INCLUDE\XMEMORY
E:\PROGRAM FILES (X86)\MICROSOFT VISUAL STUDIO\2019\COMMUNITY\VC\TOOLS\MSVC\14.27.29110\INCLUDE\CSTDINT
E:\PROGRAM FILES (X86)\MICROSOFT VISUAL STUDIO\2019\COMMUNITY\VC\TOOLS\MSVC\14.27.29110\INCLUDE\STDINT.H
E:\PROGRAM FILES (X86)\MICROSOFT VISUAL STUDIO\2019\COMMUNITY\VC\TOOLS\MSVC\14.27.29110\INCLUDE\LIMITS
E:\PROGRAM FILES (X86)\MICROSOFT VISUAL STUDIO\2019\COMMUNITY\VC\TOOLS\MSVC\14.27.29110\INCLUDE\CFLOAT
E:\WINDOWS KITS\10\INCLUDE\10.0.18362.0\UCRT\FLOAT.H
E:\PROGRAM FILES (X86)\MICROSOFT VISUAL STUDIO\2019\COMMUNITY\VC\TOOLS\MSVC\14.27.29110\INCLUDE\NEW
E:\PROGRAM FILES (X86)\MICROSOFT VISUAL STUDIO\2019\COMMUNITY\VC\TOOLS\MSVC\14.27.29110\INCLUDE\XATOMIC.H
E:\PROGRAM FILES (X86)\MICROSOFT VISUAL STUDIO\2019\COMMUNITY\VC\TOOLS\MSVC\14.27.29110\INCLUDE\INTRIN0.H
E:\PROGRAM FILES (X86)\MICROSOFT VISUAL STUDIO\2019\COMMUNITY\VC\TOOLS\MSVC\14.27.29110\INCLUDE\XCALL_ONCE.H
E:\PROGRAM FILES (X86)\MICROSOFT VISUAL STUDIO\2019\COMMUNITY\VC\TOOLS\MSVC\14.27.29110\INCLUDE\XERRC.H
E:\PROGRAM FILES (X86)\MICROSOFT VISUAL STUDIO\2019\COMMUNITY\VC\TOOLS\MSVC\14.27.29110\INCLUDE\ATOMIC
E:\PROGRAM FILES (X86)\MICROSOFT VISUAL STUDIO\2019\COMMUNITY\VC\TOOLS\MSVC\14.27.29110\INCLUDE\XLOCALE
E:\PROGRAM FILES (X86)\MICROSOFT VISUAL STUDIO\2019\COMMUNITY\VC\TOOLS\MSVC\14.27.29110\INCLUDE\MEMORY
E:\PROGRAM FILES (X86)\MICROSOFT VISUAL STUDIO\2019\COMMUNITY\VC\TOOLS\MSVC\14.27.29110\INCLUDE\TYPEINFO
E:\PROGRAM FILES (X86)\MICROSOFT VISUAL STUDIO\2019\COMMUNITY\VC\TOOLS\MSVC\14.27.29110\INCLUDE\VCRUNTIME_TYPEINFO.H
E:\PROGRAM FILES (X86)\MICROSOFT VISUAL STUDIO\2019\COMMUNITY\VC\TOOLS\MSVC\14.27.29110\INCLUDE\XFACET
E:\PROGRAM FILES (X86)\MICROSOFT VISUAL STUDIO\2019\COMMUNITY\VC\TOOLS\MSVC\14.27.29110\INCLUDE\XLOCINFO
E:\PROGRAM FILES (X86)\MICROSOFT VISUAL STUDIO\2019\COMMUNITY\VC\TOOLS\MSVC\14.27.29110\INCLUDE\XLOCINFO.H
E:\WINDOWS KITS\10\INCLUDE\10.0.18362.0\UCRT\CTYPE.H
E:\WINDOWS KITS\10\INCLUDE\10.0.18362.0\UCRT\LOCALE.H
E:\PROJEKTY_VS\BAZADANYCHDAWIDA\PACKAGES\ALLEGRO.5.2.6\BUILD\NATIVE\INCLUDE\ALLEGRO5\ALLEGRO.H
E:\PROJEKTY_VS\BAZADANYCHDAWIDA\PACKAGES\ALLEGRO.5.2.6\BUILD\NATIVE\INCLUDE\ALLEGRO5\BASE.H
E:\PROGRAM FILES (X86)\MICROSOFT VISUAL STUDIO\2019\COMMUNITY\VC\TOOLS\MSVC\14.27.29110\INCLUDE\STDARG.H
E:\WINDOWS KITS\10\INCLUDE\10.0.18362.0\UCRT\TIME.H
E:\PROJEKTY_VS\BAZADANYCHDAWIDA\PACKAGES\ALLEGRO.5.2.6\BUILD\NATIVE\INCLUDE\ALLEGRO5\INTERNAL\ALCONFIG.H
E:\PROJEKTY_VS\BAZADANYCHDAWIDA\PACKAGES\ALLEGRO.5.2.6\BUILD\NATIVE\INCLUDE\ALLEGRO5\PLATFORM\ALPLATF.H
E:\PROJEKTY_VS\BAZADANYCHDAWIDA\PACKAGES\ALLEGRO.5.2.6\BUILD\NATIVE\INCLUDE\ALLEGRO5\PLATFORM\ALMSVC.H
E:\WINDOWS KITS\10\INCLUDE\10.0.18362.0\UCRT\IO.H
E:\WINDOWS KITS\10\INCLUDE\10.0.18362.0\UCRT\CORECRT_IO.H
E:\WINDOWS KITS\10\INCLUDE\10.0.18362.0\UCRT\FCNTL.H
E:\WINDOWS KITS\10\INCLUDE\10.0.18362.0\UCRT\DIRECT.H
E:\PROJEKTY_VS\BAZADANYCHDAWIDA\PACKAGES\ALLEGRO.5.2.6\BUILD\NATIVE\INCLUDE\ALLEGRO5\PLATFORM\ASTDINT.H
E:\WINDOWS KITS\10\INCLUDE\10.0.18362.0\UCRT\INTTYPES.H
E:\PROJEKTY_VS\BAZADANYCHDAWIDA\PACKAGES\ALLEGRO.5.2.6\BUILD\NATIVE\INCLUDE\ALLEGRO5\PLATFORM\ASTDBOOL.H
E:\PROJEKTY_VS\BAZADANYCHDAWIDA\PACKAGES\ALLEGRO.5.2.6\BUILD\NATIVE\INCLUDE\ALLEGRO5\ALTIME.H
E:\PROJEKTY_VS\BAZADANYCHDAWIDA\PACKAGES\ALLEGRO.5.2.6\BUILD\NATIVE\INCLUDE\ALLEGRO5\BITMAP.H
E:\PROJEKTY_VS\BAZADANYCHDAWIDA\PACKAGES\ALLEGRO.5.2.6\BUILD\NATIVE\INCLUDE\ALLEGRO5\COLOR.H
E:\PROJEKTY_VS\BAZADANYCHDAWIDA\PACKAGES\ALLEGRO.5.2.6\BUILD\NATIVE\INCLUDE\ALLEGRO5\BITMAP_DRAW.H
E:\PROJEKTY_VS\BAZADANYCHDAWIDA\PACKAGES\ALLEGRO.5.2.6\BUILD\NATIVE\INCLUDE\ALLEGRO5\BITMAP_IO.H
E:\PROJEKTY_VS\BAZADANYCHDAWIDA\PACKAGES\ALLEGRO.5.2.6\BUILD\NATIVE\INCLUDE\ALLEGRO5\FILE.H
E:\PROJEKTY_VS\BAZADANYCHDAWIDA\PACKAGES\ALLEGRO.5.2.6\BUILD\NATIVE\INCLUDE\ALLEGRO5\PATH.H
E:\PROJEKTY_VS\BAZADANYCHDAWIDA\PACKAGES\ALLEGRO.5.2.6\BUILD\NATIVE\INCLUDE\ALLEGRO5\UTF8.H
E:\PROJEKTY_VS\BAZADANYCHDAWIDA\PACKAGES\ALLEGRO.5.2.6\BUILD\NATIVE\INCLUDE\ALLEGRO5\BITMAP_LOCK.H
E:\PROJEKTY_VS\BAZADANYCHDAWIDA\PACKAGES\ALLEGRO.5.2.6\BUILD\NATIVE\INCLUDE\ALLEGRO5\BLENDER.H
E:\PROJEKTY_VS\BAZADANYCHDAWIDA\PACKAGES\ALLEGRO.5.2.6\BUILD\NATIVE\INCLUDE\ALLEGRO5\CLIPBOARD.H
E:\PROJEKTY_VS\BAZADANYCHDAWIDA\PACKAGES\ALLEGRO.5.2.6\BUILD\NATIVE\INCLUDE\ALLEGRO5\DISPLAY.H
E:\PROJEKTY_VS\BAZADANYCHDAWIDA\PACKAGES\ALLEGRO.5.2.6\BUILD\NATIVE\INCLUDE\ALLEGRO5\EVENTS.H
E:\PROJEKTY_VS\BAZADANYCHDAWIDA\PACKAGES\ALLEGRO.5.2.6\BUILD\NATIVE\INCLUDE\ALLEGRO5\CONFIG.H
E:\PROJEKTY_VS\BAZADANYCHDAWIDA\PACKAGES\ALLEGRO.5.2.6\BUILD\NATIVE\INCLUDE\ALLEGRO5\CPU.H
E:\PROJEKTY_VS\BAZADANYCHDAWIDA\PACKAGES\ALLEGRO.5.2.6\BUILD\NATIVE\INCLUDE\ALLEGRO5\DEBUG.H
E:\WINDOWS KITS\10\INCLUDE\10.0.18362.0\UCRT\ASSERT.H
E:\PROJEKTY_VS\BAZADANYCHDAWIDA\PACKAGES\ALLEGRO.5.2.6\BUILD\NATIVE\INCLUDE\ALLEGRO5\DRAWING.H
E:\PROJEKTY_VS\BAZADANYCHDAWIDA\PACKAGES\ALLEGRO.5.2.6\BUILD\NATIVE\INCLUDE\ALLEGRO5\ERROR.H
E:\PROJEKTY_VS\BAZADANYCHDAWIDA\PACKAGES\ALLEGRO.5.2.6\BUILD\NATIVE\INCLUDE\ALLEGRO5\FIXED.H
E:\PROJEKTY_VS\BAZADANYCHDAWIDA\PACKAGES\ALLEGRO.5.2.6\BUILD\NATIVE\INCLUDE\ALLEGRO5\FMATHS.H
E:\PROJEKTY_VS\BAZADANYCHDAWIDA\PACKAGES\ALLEGRO.5.2.6\BUILD\NATIVE\INCLUDE\ALLEGRO5\INLINE\FMATHS.INL
E:\PROJEKTY_VS\BAZADANYCHDAWIDA\PACKAGES\ALLEGRO.5.2.6\BUILD\NATIVE\INCLUDE\ALLEGRO5\FSHOOK.H
E:\PROJEKTY_VS\BAZADANYCHDAWIDA\PACKAGES\ALLEGRO.5.2.6\BUILD\NATIVE\INCLUDE\ALLEGRO5\FULLSCREEN_MODE.H
E:\PROJEKTY_VS\BAZADANYCHDAWIDA\PACKAGES\ALLEGRO.5.2.6\BUILD\NATIVE\INCLUDE\ALLEGRO5\HAPTIC.H
E:\PROJEKTY_VS\BAZADANYCHDAWIDA\PACKAGES\ALLEGRO.5.2.6\BUILD\NATIVE\INCLUDE\ALLEGRO5\JOYSTICK.H
E:\PROJEKTY_VS\BAZADANYCHDAWIDA\PACKAGES\ALLEGRO.5.2.6\BUILD\NATIVE\INCLUDE\ALLEGRO5\KEYBOARD.H
E:\PROJEKTY_VS\BAZADANYCHDAWIDA\PACKAGES\ALLEGRO.5.2.6\BUILD\NATIVE\INCLUDE\ALLEGRO5\KEYCODES.H
E:\PROJEKTY_VS\BAZADANYCHDAWIDA\PACKAGES\ALLEGRO.5.2.6\BUILD\NATIVE\INCLUDE\ALLEGRO5\MOUSE.H
E:\PROJEKTY_VS\BAZADANYCHDAWIDA\PACKAGES\ALLEGRO.5.2.6\BUILD\NATIVE\INCLUDE\ALLEGRO5\TOUCH_INPUT.H
E:\PROJEKTY_VS\BAZADANYCHDAWIDA\PACKAGES\ALLEGRO.5.2.6\BUILD\NATIVE\INCLUDE\ALLEGRO5\MEMORY.H
E:\PROJEKTY_VS\BAZADANYCHDAWIDA\PACKAGES\ALLEGRO.5.2.6\BUILD\NATIVE\INCLUDE\ALLEGRO5\MONITOR.H
E:\PROJEKTY_VS\BAZADANYCHDAWIDA\PACKAGES\ALLEGRO.5.2.6\BUILD\NATIVE\INCLUDE\ALLEGRO5\MOUSE_CURSOR.H
E:\PROJEKTY_VS\BAZADANYCHDAWIDA\PACKAGES\ALLEGRO.5.2.6\BUILD\NATIVE\INCLUDE\ALLEGRO5\RENDER_STATE.H
E:\PROJEKTY_VS\BAZADANYCHDAWIDA\PACKAGES\ALLEGRO.5.2.6\BUILD\NATIVE\INCLUDE\ALLEGRO5\SHADER.H
E:\PROJEKTY_VS\BAZADANYCHDAWIDA\PACKAGES\ALLEGRO.5.2.6\BUILD\NATIVE\INCLUDE\ALLEGRO5\TRANSFORMATIONS.H
E:\PROJEKTY_VS\BAZADANYCHDAWIDA\PACKAGES\ALLEGRO.5.2.6\BUILD\NATIVE\INCLUDE\ALLEGRO5\SYSTEM.H
E:\PROJEKTY_VS\BAZADANYCHDAWIDA\PACKAGES\ALLEGRO.5.2.6\BUILD\NATIVE\INCLUDE\ALLEGRO5\THREADS.H
E:\PROJEKTY_VS\BAZADANYCHDAWIDA\PACKAGES\ALLEGRO.5.2.6\BUILD\NATIVE\INCLUDE\ALLEGRO5\TIMER.H
E:\PROJEKTY_VS\BAZADANYCHDAWIDA\PACKAGES\ALLEGRO.5.2.6\BUILD\NATIVE\INCLUDE\ALLEGRO5\TLS.H
E:\PROJEKTY_VS\BAZADANYCHDAWIDA\PACKAGES\ALLEGRO.5.2.6\BUILD\NATIVE\INCLUDE\ALLEGRO5\ALCOMPAT.H
E:\PROJEKTY_VS\BAZADANYCHDAWIDA\PACKAGES\ALLEGRO.5.2.6\BUILD\NATIVE\INCLUDE\ALLEGRO5\PLATFORM\ALWIN.H
E:\PROJEKTY_VS\BAZADANYCHDAWIDA\PACKAGES\ALLEGRO.5.2.6\BUILD\NATIVE\INCLUDE\ALLEGRO5\ALLEGRO_FONT.H
E:\PROJEKTY_VS\BAZADANYCHDAWIDA\PACKAGES\ALLEGRO.5.2.6\BUILD\NATIVE\INCLUDE\ALLEGRO5\ALLEGRO_TTF.H
E:\PROJEKTY_VS\BAZADANYCHDAWIDA\PACKAGES\ALLEGRO.5.2.6\BUILD\NATIVE\INCLUDE\ALLEGRO5\ALLEGRO_IMAGE.H
E:\PROJEKTY_VS\BAZADANYCHDAWIDA\PACKAGES\ALLEGRO.5.2.6\BUILD\NATIVE\INCLUDE\ALLEGRO5\ALLEGRO_PRIMITIVES.H
E:\PROGRAM FILES (X86)\MICROSOFT VISUAL STUDIO\2019\COMMUNITY\VC\TOOLS\MSVC\14.27.29110\INCLUDE\STRING
E:\PROGRAM FILES (X86)\MICROSOFT VISUAL STUDIO\2019\COMMUNITY\VC\TOOLS\MSVC\14.27.29110\INCLUDE\CCTYPE
E:\PROGRAM FILES (X86)\MICROSOFT VISUAL STUDIO\2019\COMMUNITY\VC\TOOLS\MSVC\14.27.29110\INCLUDE\FSTREAM
