^E:\PROJEKTY_VS\BAZADANYCHDAWIDA\BAZADANYCHDAWIDA.CPP
E:\PROJEKTY_VS\BAZADANYCHDAWIDA\DEBUG\VC142.PDB
E:\PROJEKTY_VS\BAZADANYCHDAWIDA\DEBUG\VC142.IDB
E:\PROJEKTY_VS\BAZADANYCHDAWIDA\DEBUG\BAZADANYCHDAWIDA.OBJ
