^E:\PROJEKTY_VS\BAZADANYCHDAWIDA\DEBUG\BAZADANYCHDAWIDA.OBJ
E:\PROJEKTY_VS\BAZADANYCHDAWIDA\PACKAGES\ALLEGRO.5.2.6\BUILD\NATIVE\V142\WIN32\LIB\ALLEGRO.LIB
E:\PROJEKTY_VS\BAZADANYCHDAWIDA\PACKAGES\ALLEGRO.5.2.6\BUILD\NATIVE\V142\WIN32\LIB\ALLEGRO_MAIN.LIB
E:\PROJEKTY_VS\BAZADANYCHDAWIDA\PACKAGES\ALLEGRO.5.2.6\BUILD\NATIVE\V142\WIN32\LIB\ALLEGRO_IMAGE.LIB
E:\PROJEKTY_VS\BAZADANYCHDAWIDA\PACKAGES\ALLEGRO.5.2.6\BUILD\NATIVE\V142\WIN32\LIB\ALLEGRO_FONT.LIB
E:\PROJEKTY_VS\BAZADANYCHDAWIDA\PACKAGES\ALLEGRO.5.2.6\BUILD\NATIVE\V142\WIN32\LIB\ALLEGRO_TTF.LIB
E:\PROJEKTY_VS\BAZADANYCHDAWIDA\PACKAGES\ALLEGRO.5.2.6\BUILD\NATIVE\V142\WIN32\LIB\ALLEGRO_DIALOG.LIB
E:\PROJEKTY_VS\BAZADANYCHDAWIDA\PACKAGES\ALLEGRO.5.2.6\BUILD\NATIVE\V142\WIN32\LIB\ALLEGRO_PRIMITIVES.LIB
E:\WINDOWS KITS\10\LIB\10.0.18362.0\UM\X86\KERNEL32.LIB
E:\WINDOWS KITS\10\LIB\10.0.18362.0\UM\X86\USER32.LIB
E:\WINDOWS KITS\10\LIB\10.0.18362.0\UM\X86\GDI32.LIB
E:\WINDOWS KITS\10\LIB\10.0.18362.0\UM\X86\WINSPOOL.LIB
E:\WINDOWS KITS\10\LIB\10.0.18362.0\UM\X86\COMDLG32.LIB
E:\WINDOWS KITS\10\LIB\10.0.18362.0\UM\X86\ADVAPI32.LIB
E:\WINDOWS KITS\10\LIB\10.0.18362.0\UM\X86\SHELL32.LIB
E:\WINDOWS KITS\10\LIB\10.0.18362.0\UM\X86\OLE32.LIB
E:\WINDOWS KITS\10\LIB\10.0.18362.0\UM\X86\OLEAUT32.LIB
E:\WINDOWS KITS\10\LIB\10.0.18362.0\UM\X86\UUID.LIB
E:\WINDOWS KITS\10\LIB\10.0.18362.0\UM\X86\ODBC32.LIB
E:\WINDOWS KITS\10\LIB\10.0.18362.0\UM\X86\ODBCCP32.LIB
E:\PROJEKTY_VS\BAZADANYCHDAWIDA\DEBUG\BAZADANYCHDAWIDA.OBJ
C:\WINDOWS\SYSTEM32\TZRES.DLL
C:\WINDOWS\GLOBALIZATION\SORTING\SORTDEFAULT.NLS
E:\PROGRAM FILES (X86)\MICROSOFT VISUAL STUDIO\2019\COMMUNITY\VC\TOOLS\MSVC\14.27.29110\LIB\X86\MSVCPRTD.LIB
E:\PROGRAM FILES (X86)\MICROSOFT VISUAL STUDIO\2019\COMMUNITY\VC\TOOLS\MSVC\14.27.29110\LIB\X86\MSVCRTD.LIB
E:\PROGRAM FILES (X86)\MICROSOFT VISUAL STUDIO\2019\COMMUNITY\VC\TOOLS\MSVC\14.27.29110\LIB\X86\OLDNAMES.LIB
E:\PROGRAM FILES (X86)\MICROSOFT VISUAL STUDIO\2019\COMMUNITY\VC\TOOLS\MSVC\14.27.29110\LIB\X86\VCRUNTIMED.LIB
E:\WINDOWS KITS\10\LIB\10.0.18362.0\UCRT\X86\UCRTD.LIB
