mapa[0][0][0]=0; 
mapa[0][0][1]=0; 
mapa[0][0][2]=0; 
mapa[0][0][3]=0; 
mapa[0][0][4]=0; 
mapa[0][1][0]=0; 
mapa[0][1][1]=0; 
mapa[0][1][2]=0; 
mapa[0][1][3]=0; 
mapa[0][1][4]=0; 
mapa[0][2][0]=0; 
mapa[0][2][1]=0; 
mapa[0][2][2]=0; 
mapa[0][2][3]=0; 
mapa[0][2][4]=0; 
mapa[0][3][0]=0; 
mapa[0][3][1]=0; 
mapa[0][3][2]=0; 
mapa[0][3][3]=0; 
mapa[0][3][4]=0; 
mapa[0][4][0]=0; 
mapa[0][4][1]=0; 
mapa[0][4][2]=0; 
mapa[0][4][3]=0; 
mapa[0][4][4]=0; 
mapa[0][5][0]=0; 
mapa[0][5][1]=0; 
mapa[0][5][2]=0; 
mapa[0][5][3]=0; 
mapa[0][5][4]=0; 
mapa[0][6][0]=0; 
mapa[0][6][1]=0; 
mapa[0][6][2]=0; 
mapa[0][6][3]=0; 
mapa[0][6][4]=0; 
mapa[0][7][0]=0; 
mapa[0][7][1]=0; 
mapa[0][7][2]=0; 
mapa[0][7][3]=0; 
mapa[0][7][4]=0; 
mapa[0][8][0]=0; 
mapa[0][8][1]=0; 
mapa[0][8][2]=0; 
mapa[0][8][3]=0; 
mapa[0][8][4]=0; 
mapa[0][9][0]=0; 
mapa[0][9][1]=0; 
mapa[0][9][2]=0; 
mapa[0][9][3]=0; 
mapa[0][9][4]=0; 
mapa[0][10][0]=0; 
mapa[0][10][1]=0; 
mapa[0][10][2]=0; 
mapa[0][10][3]=0; 
mapa[0][10][4]=0; 
mapa[0][11][0]=0; 
mapa[0][11][1]=0; 
mapa[0][11][2]=0; 
mapa[0][11][3]=0; 
mapa[0][11][4]=0; 
mapa[0][12][0]=0; 
mapa[0][12][1]=0; 
mapa[0][12][2]=0; 
mapa[0][12][3]=0; 
mapa[0][12][4]=0; 
mapa[0][13][0]=0; 
mapa[0][13][1]=0; 
mapa[0][13][2]=0; 
mapa[0][13][3]=0; 
mapa[0][13][4]=0; 
mapa[0][14][0]=0; 
mapa[0][14][1]=0; 
mapa[0][14][2]=0; 
mapa[0][14][3]=0; 
mapa[0][14][4]=0; 
mapa[0][15][0]=0; 
mapa[0][15][1]=0; 
mapa[0][15][2]=0; 
mapa[0][15][3]=0; 
mapa[0][15][4]=0; 
mapa[0][16][0]=0; 
mapa[0][16][1]=0; 
mapa[0][16][2]=0; 
mapa[0][16][3]=0; 
mapa[0][16][4]=0; 
mapa[0][17][0]=0; 
mapa[0][17][1]=0; 
mapa[0][17][2]=0; 
mapa[0][17][3]=0; 
mapa[0][17][4]=0; 
mapa[0][18][0]=0; 
mapa[0][18][1]=0; 
mapa[0][18][2]=0; 
mapa[0][18][3]=0; 
mapa[0][18][4]=0; 
mapa[0][19][0]=0; 
mapa[0][19][1]=0; 
mapa[0][19][2]=0; 
mapa[0][19][3]=0; 
mapa[0][19][4]=0; 
mapa[0][20][0]=0; 
mapa[0][20][1]=0; 
mapa[0][20][2]=0; 
mapa[0][20][3]=0; 
mapa[0][20][4]=0; 
mapa[1][0][0]=0; 
mapa[1][0][1]=0; 
mapa[1][0][2]=0; 
mapa[1][0][3]=0; 
mapa[1][0][4]=0; 
mapa[1][1][0]=0; 
mapa[1][1][1]=0; 
mapa[1][1][2]=0; 
mapa[1][1][3]=0; 
mapa[1][1][4]=0; 
mapa[1][2][0]=0; 
mapa[1][2][1]=0; 
mapa[1][2][2]=0; 
mapa[1][2][3]=0; 
mapa[1][2][4]=0; 
mapa[1][3][0]=0; 
mapa[1][3][1]=0; 
mapa[1][3][2]=0; 
mapa[1][3][3]=0; 
mapa[1][3][4]=0; 
mapa[1][4][0]=0; 
mapa[1][4][1]=0; 
mapa[1][4][2]=0; 
mapa[1][4][3]=0; 
mapa[1][4][4]=0; 
mapa[1][5][0]=0; 
mapa[1][5][1]=0; 
mapa[1][5][2]=0; 
mapa[1][5][3]=0; 
mapa[1][5][4]=0; 
mapa[1][6][0]=0; 
mapa[1][6][1]=0; 
mapa[1][6][2]=0; 
mapa[1][6][3]=0; 
mapa[1][6][4]=0; 
mapa[1][7][0]=0; 
mapa[1][7][1]=0; 
mapa[1][7][2]=0; 
mapa[1][7][3]=0; 
mapa[1][7][4]=0; 
mapa[1][8][0]=0; 
mapa[1][8][1]=0; 
mapa[1][8][2]=0; 
mapa[1][8][3]=0; 
mapa[1][8][4]=0; 
mapa[1][9][0]=0; 
mapa[1][9][1]=0; 
mapa[1][9][2]=0; 
mapa[1][9][3]=0; 
mapa[1][9][4]=0; 
mapa[1][10][0]=0; 
mapa[1][10][1]=0; 
mapa[1][10][2]=0; 
mapa[1][10][3]=0; 
mapa[1][10][4]=0; 
mapa[1][11][0]=0; 
mapa[1][11][1]=0; 
mapa[1][11][2]=0; 
mapa[1][11][3]=0; 
mapa[1][11][4]=0; 
mapa[1][12][0]=0; 
mapa[1][12][1]=0; 
mapa[1][12][2]=0; 
mapa[1][12][3]=0; 
mapa[1][12][4]=0; 
mapa[1][13][0]=0; 
mapa[1][13][1]=0; 
mapa[1][13][2]=0; 
mapa[1][13][3]=0; 
mapa[1][13][4]=0; 
mapa[1][14][0]=0; 
mapa[1][14][1]=0; 
mapa[1][14][2]=0; 
mapa[1][14][3]=0; 
mapa[1][14][4]=0; 
mapa[1][15][0]=0; 
mapa[1][15][1]=0; 
mapa[1][15][2]=0; 
mapa[1][15][3]=0; 
mapa[1][15][4]=0; 
mapa[1][16][0]=0; 
mapa[1][16][1]=0; 
mapa[1][16][2]=0; 
mapa[1][16][3]=0; 
mapa[1][16][4]=0; 
mapa[1][17][0]=0; 
mapa[1][17][1]=0; 
mapa[1][17][2]=0; 
mapa[1][17][3]=0; 
mapa[1][17][4]=0; 
mapa[1][18][0]=0; 
mapa[1][18][1]=0; 
mapa[1][18][2]=0; 
mapa[1][18][3]=0; 
mapa[1][18][4]=0; 
mapa[1][19][0]=0; 
mapa[1][19][1]=0; 
mapa[1][19][2]=0; 
mapa[1][19][3]=0; 
mapa[1][19][4]=0; 
mapa[1][20][0]=0; 
mapa[1][20][1]=0; 
mapa[1][20][2]=0; 
mapa[1][20][3]=0; 
mapa[1][20][4]=0; 
mapa[2][0][0]=0; 
mapa[2][0][1]=0; 
mapa[2][0][2]=0; 
mapa[2][0][3]=0; 
mapa[2][0][4]=0; 
mapa[2][1][0]=0; 
mapa[2][1][1]=0; 
mapa[2][1][2]=0; 
mapa[2][1][3]=0; 
mapa[2][1][4]=0; 
mapa[2][2][0]=0; 
mapa[2][2][1]=0; 
mapa[2][2][2]=0; 
mapa[2][2][3]=0; 
mapa[2][2][4]=0; 
mapa[2][3][0]=0; 
mapa[2][3][1]=0; 
mapa[2][3][2]=0; 
mapa[2][3][3]=0; 
mapa[2][3][4]=0; 
mapa[2][4][0]=0; 
mapa[2][4][1]=0; 
mapa[2][4][2]=0; 
mapa[2][4][3]=0; 
mapa[2][4][4]=0; 
mapa[2][5][0]=0; 
mapa[2][5][1]=0; 
mapa[2][5][2]=0; 
mapa[2][5][3]=0; 
mapa[2][5][4]=0; 
mapa[2][6][0]=0; 
mapa[2][6][1]=0; 
mapa[2][6][2]=0; 
mapa[2][6][3]=0; 
mapa[2][6][4]=0; 
mapa[2][7][0]=0; 
mapa[2][7][1]=0; 
mapa[2][7][2]=0; 
mapa[2][7][3]=0; 
mapa[2][7][4]=0; 
mapa[2][8][0]=0; 
mapa[2][8][1]=0; 
mapa[2][8][2]=0; 
mapa[2][8][3]=0; 
mapa[2][8][4]=0; 
mapa[2][9][0]=0; 
mapa[2][9][1]=0; 
mapa[2][9][2]=0; 
mapa[2][9][3]=0; 
mapa[2][9][4]=0; 
mapa[2][10][0]=0; 
mapa[2][10][1]=0; 
mapa[2][10][2]=0; 
mapa[2][10][3]=0; 
mapa[2][10][4]=0; 
mapa[2][11][0]=0; 
mapa[2][11][1]=0; 
mapa[2][11][2]=0; 
mapa[2][11][3]=0; 
mapa[2][11][4]=0; 
mapa[2][12][0]=0; 
mapa[2][12][1]=0; 
mapa[2][12][2]=0; 
mapa[2][12][3]=0; 
mapa[2][12][4]=0; 
mapa[2][13][0]=0; 
mapa[2][13][1]=0; 
mapa[2][13][2]=0; 
mapa[2][13][3]=0; 
mapa[2][13][4]=0; 
mapa[2][14][0]=0; 
mapa[2][14][1]=0; 
mapa[2][14][2]=0; 
mapa[2][14][3]=0; 
mapa[2][14][4]=0; 
mapa[2][15][0]=0; 
mapa[2][15][1]=0; 
mapa[2][15][2]=0; 
mapa[2][15][3]=0; 
mapa[2][15][4]=0; 
mapa[2][16][0]=0; 
mapa[2][16][1]=0; 
mapa[2][16][2]=0; 
mapa[2][16][3]=0; 
mapa[2][16][4]=0; 
mapa[2][17][0]=0; 
mapa[2][17][1]=0; 
mapa[2][17][2]=0; 
mapa[2][17][3]=0; 
mapa[2][17][4]=0; 
mapa[2][18][0]=0; 
mapa[2][18][1]=0; 
mapa[2][18][2]=0; 
mapa[2][18][3]=0; 
mapa[2][18][4]=0; 
mapa[2][19][0]=0; 
mapa[2][19][1]=0; 
mapa[2][19][2]=0; 
mapa[2][19][3]=0; 
mapa[2][19][4]=0; 
mapa[2][20][0]=0; 
mapa[2][20][1]=0; 
mapa[2][20][2]=0; 
mapa[2][20][3]=0; 
mapa[2][20][4]=0; 
mapa[3][0][0]=0; 
mapa[3][0][1]=0; 
mapa[3][0][2]=0; 
mapa[3][0][3]=0; 
mapa[3][0][4]=0; 
mapa[3][1][0]=0; 
mapa[3][1][1]=0; 
mapa[3][1][2]=0; 
mapa[3][1][3]=0; 
mapa[3][1][4]=0; 
mapa[3][2][0]=0; 
mapa[3][2][1]=0; 
mapa[3][2][2]=0; 
mapa[3][2][3]=0; 
mapa[3][2][4]=0; 
mapa[3][3][0]=0; 
mapa[3][3][1]=0; 
mapa[3][3][2]=0; 
mapa[3][3][3]=0; 
mapa[3][3][4]=0; 
mapa[3][4][0]=0; 
mapa[3][4][1]=0; 
mapa[3][4][2]=0; 
mapa[3][4][3]=0; 
mapa[3][4][4]=0; 
mapa[3][5][0]=0; 
mapa[3][5][1]=0; 
mapa[3][5][2]=0; 
mapa[3][5][3]=0; 
mapa[3][5][4]=0; 
mapa[3][6][0]=0; 
mapa[3][6][1]=0; 
mapa[3][6][2]=0; 
mapa[3][6][3]=0; 
mapa[3][6][4]=0; 
mapa[3][7][0]=0; 
mapa[3][7][1]=0; 
mapa[3][7][2]=0; 
mapa[3][7][3]=0; 
mapa[3][7][4]=0; 
mapa[3][8][0]=0; 
mapa[3][8][1]=0; 
mapa[3][8][2]=0; 
mapa[3][8][3]=0; 
mapa[3][8][4]=0; 
mapa[3][9][0]=0; 
mapa[3][9][1]=0; 
mapa[3][9][2]=0; 
mapa[3][9][3]=0; 
mapa[3][9][4]=0; 
mapa[3][10][0]=0; 
mapa[3][10][1]=0; 
mapa[3][10][2]=0; 
mapa[3][10][3]=0; 
mapa[3][10][4]=0; 
mapa[3][11][0]=0; 
mapa[3][11][1]=0; 
mapa[3][11][2]=0; 
mapa[3][11][3]=0; 
mapa[3][11][4]=0; 
mapa[3][12][0]=0; 
mapa[3][12][1]=0; 
mapa[3][12][2]=0; 
mapa[3][12][3]=0; 
mapa[3][12][4]=0; 
mapa[3][13][0]=0; 
mapa[3][13][1]=0; 
mapa[3][13][2]=0; 
mapa[3][13][3]=0; 
mapa[3][13][4]=0; 
mapa[3][14][0]=0; 
mapa[3][14][1]=0; 
mapa[3][14][2]=0; 
mapa[3][14][3]=0; 
mapa[3][14][4]=0; 
mapa[3][15][0]=0; 
mapa[3][15][1]=0; 
mapa[3][15][2]=0; 
mapa[3][15][3]=0; 
mapa[3][15][4]=0; 
mapa[3][16][0]=0; 
mapa[3][16][1]=0; 
mapa[3][16][2]=0; 
mapa[3][16][3]=0; 
mapa[3][16][4]=0; 
mapa[3][17][0]=0; 
mapa[3][17][1]=0; 
mapa[3][17][2]=0; 
mapa[3][17][3]=0; 
mapa[3][17][4]=0; 
mapa[3][18][0]=0; 
mapa[3][18][1]=0; 
mapa[3][18][2]=0; 
mapa[3][18][3]=0; 
mapa[3][18][4]=0; 
mapa[3][19][0]=0; 
mapa[3][19][1]=0; 
mapa[3][19][2]=0; 
mapa[3][19][3]=0; 
mapa[3][19][4]=0; 
mapa[3][20][0]=0; 
mapa[3][20][1]=0; 
mapa[3][20][2]=0; 
mapa[3][20][3]=0; 
mapa[3][20][4]=0; 
mapa[4][0][0]=0; 
mapa[4][0][1]=0; 
mapa[4][0][2]=0; 
mapa[4][0][3]=0; 
mapa[4][0][4]=0; 
mapa[4][1][0]=0; 
mapa[4][1][1]=0; 
mapa[4][1][2]=0; 
mapa[4][1][3]=0; 
mapa[4][1][4]=0; 
mapa[4][2][0]=0; 
mapa[4][2][1]=0; 
mapa[4][2][2]=0; 
mapa[4][2][3]=0; 
mapa[4][2][4]=0; 
mapa[4][3][0]=0; 
mapa[4][3][1]=0; 
mapa[4][3][2]=0; 
mapa[4][3][3]=0; 
mapa[4][3][4]=0; 
mapa[4][4][0]=0; 
mapa[4][4][1]=0; 
mapa[4][4][2]=0; 
mapa[4][4][3]=0; 
mapa[4][4][4]=0; 
mapa[4][5][0]=0; 
mapa[4][5][1]=0; 
mapa[4][5][2]=0; 
mapa[4][5][3]=0; 
mapa[4][5][4]=0; 
mapa[4][6][0]=0; 
mapa[4][6][1]=0; 
mapa[4][6][2]=0; 
mapa[4][6][3]=0; 
mapa[4][6][4]=0; 
mapa[4][7][0]=0; 
mapa[4][7][1]=0; 
mapa[4][7][2]=0; 
mapa[4][7][3]=0; 
mapa[4][7][4]=0; 
mapa[4][8][0]=0; 
mapa[4][8][1]=0; 
mapa[4][8][2]=0; 
mapa[4][8][3]=0; 
mapa[4][8][4]=0; 
mapa[4][9][0]=0; 
mapa[4][9][1]=0; 
mapa[4][9][2]=0; 
mapa[4][9][3]=0; 
mapa[4][9][4]=0; 
mapa[4][10][0]=0; 
mapa[4][10][1]=0; 
mapa[4][10][2]=0; 
mapa[4][10][3]=0; 
mapa[4][10][4]=0; 
mapa[4][11][0]=0; 
mapa[4][11][1]=0; 
mapa[4][11][2]=0; 
mapa[4][11][3]=0; 
mapa[4][11][4]=0; 
mapa[4][12][0]=0; 
mapa[4][12][1]=0; 
mapa[4][12][2]=0; 
mapa[4][12][3]=0; 
mapa[4][12][4]=0; 
mapa[4][13][0]=0; 
mapa[4][13][1]=0; 
mapa[4][13][2]=0; 
mapa[4][13][3]=0; 
mapa[4][13][4]=0; 
mapa[4][14][0]=0; 
mapa[4][14][1]=0; 
mapa[4][14][2]=0; 
mapa[4][14][3]=0; 
mapa[4][14][4]=0; 
mapa[4][15][0]=0; 
mapa[4][15][1]=0; 
mapa[4][15][2]=0; 
mapa[4][15][3]=0; 
mapa[4][15][4]=0; 
mapa[4][16][0]=0; 
mapa[4][16][1]=0; 
mapa[4][16][2]=0; 
mapa[4][16][3]=0; 
mapa[4][16][4]=0; 
mapa[4][17][0]=0; 
mapa[4][17][1]=0; 
mapa[4][17][2]=0; 
mapa[4][17][3]=0; 
mapa[4][17][4]=0; 
mapa[4][18][0]=0; 
mapa[4][18][1]=0; 
mapa[4][18][2]=0; 
mapa[4][18][3]=0; 
mapa[4][18][4]=0; 
mapa[4][19][0]=0; 
mapa[4][19][1]=0; 
mapa[4][19][2]=0; 
mapa[4][19][3]=0; 
mapa[4][19][4]=0; 
mapa[4][20][0]=0; 
mapa[4][20][1]=0; 
mapa[4][20][2]=0; 
mapa[4][20][3]=0; 
mapa[4][20][4]=0; 
mapa[5][0][0]=0; 
mapa[5][0][1]=0; 
mapa[5][0][2]=0; 
mapa[5][0][3]=0; 
mapa[5][0][4]=0; 
mapa[5][1][0]=0; 
mapa[5][1][1]=0; 
mapa[5][1][2]=0; 
mapa[5][1][3]=0; 
mapa[5][1][4]=0; 
mapa[5][2][0]=0; 
mapa[5][2][1]=0; 
mapa[5][2][2]=0; 
mapa[5][2][3]=0; 
mapa[5][2][4]=0; 
mapa[5][3][0]=0; 
mapa[5][3][1]=0; 
mapa[5][3][2]=0; 
mapa[5][3][3]=0; 
mapa[5][3][4]=0; 
mapa[5][4][0]=2; 
mapa[5][4][1]=2387; 
mapa[5][4][2]=0; 
mapa[5][4][3]=0; 
mapa[5][4][4]=0; 
mapa[5][5][0]=2; 
mapa[5][5][1]=3321; 
mapa[5][5][2]=0; 
mapa[5][5][3]=0; 
mapa[5][5][4]=0; 
mapa[5][6][0]=0; 
mapa[5][6][1]=0; 
mapa[5][6][2]=0; 
mapa[5][6][3]=0; 
mapa[5][6][4]=0; 
mapa[5][7][0]=0; 
mapa[5][7][1]=0; 
mapa[5][7][2]=0; 
mapa[5][7][3]=0; 
mapa[5][7][4]=0; 
mapa[5][8][0]=0; 
mapa[5][8][1]=0; 
mapa[5][8][2]=0; 
mapa[5][8][3]=0; 
mapa[5][8][4]=0; 
mapa[5][9][0]=0; 
mapa[5][9][1]=0; 
mapa[5][9][2]=0; 
mapa[5][9][3]=0; 
mapa[5][9][4]=0; 
mapa[5][10][0]=0; 
mapa[5][10][1]=0; 
mapa[5][10][2]=0; 
mapa[5][10][3]=0; 
mapa[5][10][4]=0; 
mapa[5][11][0]=0; 
mapa[5][11][1]=0; 
mapa[5][11][2]=0; 
mapa[5][11][3]=0; 
mapa[5][11][4]=0; 
mapa[5][12][0]=0; 
mapa[5][12][1]=0; 
mapa[5][12][2]=0; 
mapa[5][12][3]=0; 
mapa[5][12][4]=0; 
mapa[5][13][0]=0; 
mapa[5][13][1]=0; 
mapa[5][13][2]=0; 
mapa[5][13][3]=0; 
mapa[5][13][4]=0; 
mapa[5][14][0]=0; 
mapa[5][14][1]=0; 
mapa[5][14][2]=0; 
mapa[5][14][3]=0; 
mapa[5][14][4]=0; 
mapa[5][15][0]=0; 
mapa[5][15][1]=0; 
mapa[5][15][2]=0; 
mapa[5][15][3]=0; 
mapa[5][15][4]=0; 
mapa[5][16][0]=0; 
mapa[5][16][1]=0; 
mapa[5][16][2]=0; 
mapa[5][16][3]=0; 
mapa[5][16][4]=0; 
mapa[5][17][0]=0; 
mapa[5][17][1]=0; 
mapa[5][17][2]=0; 
mapa[5][17][3]=0; 
mapa[5][17][4]=0; 
mapa[5][18][0]=0; 
mapa[5][18][1]=0; 
mapa[5][18][2]=0; 
mapa[5][18][3]=0; 
mapa[5][18][4]=0; 
mapa[5][19][0]=0; 
mapa[5][19][1]=0; 
mapa[5][19][2]=0; 
mapa[5][19][3]=0; 
mapa[5][19][4]=0; 
mapa[5][20][0]=0; 
mapa[5][20][1]=0; 
mapa[5][20][2]=0; 
mapa[5][20][3]=0; 
mapa[5][20][4]=0; 
mapa[6][0][0]=0; 
mapa[6][0][1]=0; 
mapa[6][0][2]=0; 
mapa[6][0][3]=0; 
mapa[6][0][4]=0; 
mapa[6][1][0]=0; 
mapa[6][1][1]=0; 
mapa[6][1][2]=0; 
mapa[6][1][3]=0; 
mapa[6][1][4]=0; 
mapa[6][2][0]=0; 
mapa[6][2][1]=0; 
mapa[6][2][2]=0; 
mapa[6][2][3]=0; 
mapa[6][2][4]=0; 
mapa[6][3][0]=0; 
mapa[6][3][1]=0; 
mapa[6][3][2]=0; 
mapa[6][3][3]=0; 
mapa[6][3][4]=0; 
mapa[6][4][0]=0; 
mapa[6][4][1]=0; 
mapa[6][4][2]=0; 
mapa[6][4][3]=0; 
mapa[6][4][4]=0; 
mapa[6][5][0]=2; 
mapa[6][5][1]=2131; 
mapa[6][5][2]=0; 
mapa[6][5][3]=0; 
mapa[6][5][4]=0; 
mapa[6][6][0]=0; 
mapa[6][6][1]=0; 
mapa[6][6][2]=0; 
mapa[6][6][3]=0; 
mapa[6][6][4]=0; 
mapa[6][7][0]=0; 
mapa[6][7][1]=0; 
mapa[6][7][2]=0; 
mapa[6][7][3]=0; 
mapa[6][7][4]=0; 
mapa[6][8][0]=0; 
mapa[6][8][1]=0; 
mapa[6][8][2]=0; 
mapa[6][8][3]=0; 
mapa[6][8][4]=0; 
mapa[6][9][0]=0; 
mapa[6][9][1]=0; 
mapa[6][9][2]=0; 
mapa[6][9][3]=0; 
mapa[6][9][4]=0; 
mapa[6][10][0]=0; 
mapa[6][10][1]=0; 
mapa[6][10][2]=0; 
mapa[6][10][3]=0; 
mapa[6][10][4]=0; 
mapa[6][11][0]=0; 
mapa[6][11][1]=0; 
mapa[6][11][2]=0; 
mapa[6][11][3]=0; 
mapa[6][11][4]=0; 
mapa[6][12][0]=0; 
mapa[6][12][1]=0; 
mapa[6][12][2]=0; 
mapa[6][12][3]=0; 
mapa[6][12][4]=0; 
mapa[6][13][0]=0; 
mapa[6][13][1]=0; 
mapa[6][13][2]=0; 
mapa[6][13][3]=0; 
mapa[6][13][4]=0; 
mapa[6][14][0]=0; 
mapa[6][14][1]=0; 
mapa[6][14][2]=0; 
mapa[6][14][3]=0; 
mapa[6][14][4]=0; 
mapa[6][15][0]=0; 
mapa[6][15][1]=0; 
mapa[6][15][2]=0; 
mapa[6][15][3]=0; 
mapa[6][15][4]=0; 
mapa[6][16][0]=0; 
mapa[6][16][1]=0; 
mapa[6][16][2]=0; 
mapa[6][16][3]=0; 
mapa[6][16][4]=0; 
mapa[6][17][0]=0; 
mapa[6][17][1]=0; 
mapa[6][17][2]=0; 
mapa[6][17][3]=0; 
mapa[6][17][4]=0; 
mapa[6][18][0]=0; 
mapa[6][18][1]=0; 
mapa[6][18][2]=0; 
mapa[6][18][3]=0; 
mapa[6][18][4]=0; 
mapa[6][19][0]=0; 
mapa[6][19][1]=0; 
mapa[6][19][2]=0; 
mapa[6][19][3]=0; 
mapa[6][19][4]=0; 
mapa[6][20][0]=0; 
mapa[6][20][1]=0; 
mapa[6][20][2]=0; 
mapa[6][20][3]=0; 
mapa[6][20][4]=0; 
mapa[7][0][0]=0; 
mapa[7][0][1]=0; 
mapa[7][0][2]=0; 
mapa[7][0][3]=0; 
mapa[7][0][4]=0; 
mapa[7][1][0]=0; 
mapa[7][1][1]=0; 
mapa[7][1][2]=0; 
mapa[7][1][3]=0; 
mapa[7][1][4]=0; 
mapa[7][2][0]=0; 
mapa[7][2][1]=0; 
mapa[7][2][2]=0; 
mapa[7][2][3]=0; 
mapa[7][2][4]=0; 
mapa[7][3][0]=0; 
mapa[7][3][1]=0; 
mapa[7][3][2]=0; 
mapa[7][3][3]=0; 
mapa[7][3][4]=0; 
mapa[7][4][0]=0; 
mapa[7][4][1]=0; 
mapa[7][4][2]=0; 
mapa[7][4][3]=0; 
mapa[7][4][4]=0; 
mapa[7][5][0]=2; 
mapa[7][5][1]=2030; 
mapa[7][5][2]=0; 
mapa[7][5][3]=0; 
mapa[7][5][4]=0; 
mapa[7][6][0]=2; 
mapa[7][6][1]=3385; 
mapa[7][6][2]=0; 
mapa[7][6][3]=0; 
mapa[7][6][4]=0; 
mapa[7][7][0]=0; 
mapa[7][7][1]=0; 
mapa[7][7][2]=0; 
mapa[7][7][3]=0; 
mapa[7][7][4]=0; 
mapa[7][8][0]=0; 
mapa[7][8][1]=0; 
mapa[7][8][2]=0; 
mapa[7][8][3]=0; 
mapa[7][8][4]=0; 
mapa[7][9][0]=0; 
mapa[7][9][1]=0; 
mapa[7][9][2]=0; 
mapa[7][9][3]=0; 
mapa[7][9][4]=0; 
mapa[7][10][0]=0; 
mapa[7][10][1]=0; 
mapa[7][10][2]=0; 
mapa[7][10][3]=0; 
mapa[7][10][4]=0; 
mapa[7][11][0]=0; 
mapa[7][11][1]=0; 
mapa[7][11][2]=0; 
mapa[7][11][3]=0; 
mapa[7][11][4]=0; 
mapa[7][12][0]=0; 
mapa[7][12][1]=0; 
mapa[7][12][2]=0; 
mapa[7][12][3]=0; 
mapa[7][12][4]=0; 
mapa[7][13][0]=0; 
mapa[7][13][1]=0; 
mapa[7][13][2]=0; 
mapa[7][13][3]=0; 
mapa[7][13][4]=0; 
mapa[7][14][0]=0; 
mapa[7][14][1]=0; 
mapa[7][14][2]=0; 
mapa[7][14][3]=0; 
mapa[7][14][4]=0; 
mapa[7][15][0]=0; 
mapa[7][15][1]=0; 
mapa[7][15][2]=0; 
mapa[7][15][3]=0; 
mapa[7][15][4]=0; 
mapa[7][16][0]=0; 
mapa[7][16][1]=0; 
mapa[7][16][2]=0; 
mapa[7][16][3]=0; 
mapa[7][16][4]=0; 
mapa[7][17][0]=0; 
mapa[7][17][1]=0; 
mapa[7][17][2]=0; 
mapa[7][17][3]=0; 
mapa[7][17][4]=0; 
mapa[7][18][0]=0; 
mapa[7][18][1]=0; 
mapa[7][18][2]=0; 
mapa[7][18][3]=0; 
mapa[7][18][4]=0; 
mapa[7][19][0]=0; 
mapa[7][19][1]=0; 
mapa[7][19][2]=0; 
mapa[7][19][3]=0; 
mapa[7][19][4]=0; 
mapa[7][20][0]=0; 
mapa[7][20][1]=0; 
mapa[7][20][2]=0; 
mapa[7][20][3]=0; 
mapa[7][20][4]=0; 
mapa[8][0][0]=0; 
mapa[8][0][1]=0; 
mapa[8][0][2]=0; 
mapa[8][0][3]=0; 
mapa[8][0][4]=0; 
mapa[8][1][0]=0; 
mapa[8][1][1]=0; 
mapa[8][1][2]=0; 
mapa[8][1][3]=0; 
mapa[8][1][4]=0; 
mapa[8][2][0]=0; 
mapa[8][2][1]=0; 
mapa[8][2][2]=0; 
mapa[8][2][3]=0; 
mapa[8][2][4]=0; 
mapa[8][3][0]=0; 
mapa[8][3][1]=0; 
mapa[8][3][2]=0; 
mapa[8][3][3]=0; 
mapa[8][3][4]=0; 
mapa[8][4][0]=0; 
mapa[8][4][1]=0; 
mapa[8][4][2]=0; 
mapa[8][4][3]=0; 
mapa[8][4][4]=0; 
mapa[8][5][0]=2; 
mapa[8][5][1]=3915; 
mapa[8][5][2]=0; 
mapa[8][5][3]=0; 
mapa[8][5][4]=0; 
mapa[8][6][0]=2; 
mapa[8][6][1]=3736; 
mapa[8][6][2]=0; 
mapa[8][6][3]=0; 
mapa[8][6][4]=0; 
mapa[8][7][0]=0; 
mapa[8][7][1]=0; 
mapa[8][7][2]=0; 
mapa[8][7][3]=0; 
mapa[8][7][4]=0; 
mapa[8][8][0]=0; 
mapa[8][8][1]=0; 
mapa[8][8][2]=0; 
mapa[8][8][3]=0; 
mapa[8][8][4]=0; 
mapa[8][9][0]=0; 
mapa[8][9][1]=0; 
mapa[8][9][2]=0; 
mapa[8][9][3]=0; 
mapa[8][9][4]=0; 
mapa[8][10][0]=0; 
mapa[8][10][1]=0; 
mapa[8][10][2]=0; 
mapa[8][10][3]=0; 
mapa[8][10][4]=0; 
mapa[8][11][0]=0; 
mapa[8][11][1]=0; 
mapa[8][11][2]=0; 
mapa[8][11][3]=0; 
mapa[8][11][4]=0; 
mapa[8][12][0]=0; 
mapa[8][12][1]=0; 
mapa[8][12][2]=0; 
mapa[8][12][3]=0; 
mapa[8][12][4]=0; 
mapa[8][13][0]=0; 
mapa[8][13][1]=0; 
mapa[8][13][2]=0; 
mapa[8][13][3]=0; 
mapa[8][13][4]=0; 
mapa[8][14][0]=0; 
mapa[8][14][1]=0; 
mapa[8][14][2]=0; 
mapa[8][14][3]=0; 
mapa[8][14][4]=0; 
mapa[8][15][0]=0; 
mapa[8][15][1]=0; 
mapa[8][15][2]=0; 
mapa[8][15][3]=0; 
mapa[8][15][4]=0; 
mapa[8][16][0]=0; 
mapa[8][16][1]=0; 
mapa[8][16][2]=0; 
mapa[8][16][3]=0; 
mapa[8][16][4]=0; 
mapa[8][17][0]=0; 
mapa[8][17][1]=0; 
mapa[8][17][2]=0; 
mapa[8][17][3]=0; 
mapa[8][17][4]=0; 
mapa[8][18][0]=0; 
mapa[8][18][1]=0; 
mapa[8][18][2]=0; 
mapa[8][18][3]=0; 
mapa[8][18][4]=0; 
mapa[8][19][0]=0; 
mapa[8][19][1]=0; 
mapa[8][19][2]=0; 
mapa[8][19][3]=0; 
mapa[8][19][4]=0; 
mapa[8][20][0]=0; 
mapa[8][20][1]=0; 
mapa[8][20][2]=0; 
mapa[8][20][3]=0; 
mapa[8][20][4]=0; 
mapa[9][0][0]=0; 
mapa[9][0][1]=0; 
mapa[9][0][2]=0; 
mapa[9][0][3]=0; 
mapa[9][0][4]=0; 
mapa[9][1][0]=0; 
mapa[9][1][1]=0; 
mapa[9][1][2]=0; 
mapa[9][1][3]=0; 
mapa[9][1][4]=0; 
mapa[9][2][0]=0; 
mapa[9][2][1]=0; 
mapa[9][2][2]=0; 
mapa[9][2][3]=0; 
mapa[9][2][4]=0; 
mapa[9][3][0]=0; 
mapa[9][3][1]=0; 
mapa[9][3][2]=0; 
mapa[9][3][3]=0; 
mapa[9][3][4]=0; 
mapa[9][4][0]=0; 
mapa[9][4][1]=0; 
mapa[9][4][2]=0; 
mapa[9][4][3]=0; 
mapa[9][4][4]=0; 
mapa[9][5][0]=2; 
mapa[9][5][1]=3075; 
mapa[9][5][2]=0; 
mapa[9][5][3]=0; 
mapa[9][5][4]=0; 
mapa[9][6][0]=0; 
mapa[9][6][1]=0; 
mapa[9][6][2]=0; 
mapa[9][6][3]=0; 
mapa[9][6][4]=0; 
mapa[9][7][0]=0; 
mapa[9][7][1]=0; 
mapa[9][7][2]=0; 
mapa[9][7][3]=0; 
mapa[9][7][4]=0; 
mapa[9][8][0]=0; 
mapa[9][8][1]=0; 
mapa[9][8][2]=0; 
mapa[9][8][3]=0; 
mapa[9][8][4]=0; 
mapa[9][9][0]=0; 
mapa[9][9][1]=0; 
mapa[9][9][2]=0; 
mapa[9][9][3]=0; 
mapa[9][9][4]=0; 
mapa[9][10][0]=0; 
mapa[9][10][1]=0; 
mapa[9][10][2]=0; 
mapa[9][10][3]=0; 
mapa[9][10][4]=0; 
mapa[9][11][0]=0; 
